{
    "KPackageStructure": "Plasma/Applet",
    "KPlugin": {
        "Authors": [
            {
                "Email": "hein@kde.org",
                "Name": "Eike Hein",
                "Name[he]": "אייק היין",
                "Name[ka]": "აიკე ჰაინი",
                "Name[pa]": "ਇਕੀ ਹੀਇਨ",
                "Name[ta]": "எய்கே ஹைன்",
                "Name[x-test]": "xxEike Heinxx"
            }
        ],
        "BugReportUrl": "https://bugs.kde.org/enter_bug.cgi?product=plasmashell&component=Task%20Manager%20and%20Icons-Only%20Task%20Manager",
        "Category": "Windows and Tasks",
        "Description": "Window bar displaying icons and text",
        "Description[ar]": "شريط نافذة يعرض أيقونات ونص",
        "Description[az]": "Nişanları və mətni göstərən pəncərə zolağı",
        "Description[be]": "На панэлі акна паказваюцца значкі і тэкст",
        "Description[bg]": "Лента на задачите, показваща икони и текст",
        "Description[ca@valencia]": "Barra de finestres que mostra les icones i text",
        "Description[ca]": "Barra de finestres que mostra les icones i text",
        "Description[da]": "Vinduelinje, som viser ikoner og tekst",
        "Description[eo]": "Fenestrobreto montranta piktogramojn kaj tekston",
        "Description[es]": "Barra de ventanas que muestra iconos y texto",
        "Description[eu]": "Leiho-barra, ikonoak eta testua azaltzen dituela",
        "Description[fr]": "Barre de fenêtres, avec des icônes et du texte",
        "Description[gl]": "Barra de xanelas que amosa iconas e texto.",
        "Description[he]": "סרגל חלונות המציג סמלים וטקסט",
        "Description[hu]": "Ikonokat és szöveget megjelenítő ablaksáv",
        "Description[ia]": "Barra de finestra  monstrante  icones e texto",
        "Description[is]": "Gluggastika sem birtir tákn og texta",
        "Description[it]": "La barra della finestra che visualizza icone e testo",
        "Description[ka]": "ფანჯრების პანელი, ხატულებსა და ტექსტის ჩვენებით",
        "Description[lt]": "Langų juosta atvaizduojanti piktogramas ir tekstą",
        "Description[lv]": "Loga josla ar ikonām un tekstu",
        "Description[nl]": "Vensterbalk met pictogrammen en tekst",
        "Description[nn]": "Vindaugslinje med ikon og tekst",
        "Description[pl]": "Pasek okna wyświetlający ikony i tekst",
        "Description[pt_BR]": "Seletor de janelas estilo barra de tarefas mostrando ícones e texto",
        "Description[ro]": "Bară cu ferestre afișând pictograme și text",
        "Description[ru]": "Панель переключения окон, использующая значки и текст",
        "Description[sk]": "Prepínač okien zobrazujúci ikony a text",
        "Description[sl]": "Vrstica oken, ki prikazuje ikone in besedilo",
        "Description[sv]": "Fönsterrad som visar ikoner och text",
        "Description[ta]": "சின்னங்களையும் பெயர்களையும் காட்டும் பணிப்பட்டை",
        "Description[tr]": "Simge ve metin görüntüleyen pencere çubuğu",
        "Description[uk]": "Панель вікон із показаними піктограмами і текстом",
        "Description[x-test]": "xxWindow bar displaying icons and textxx",
        "Description[zh_CN]": "窗口栏显示图标和文本",
        "Description[zh_TW]": "顯示圖示與文字的視窗列",
        "EnabledByDefault": true,
        "Icon": "preferences-system-windows",
        "Id": "org.kde.plasma.taskmanager",
        "License": "GPL-2.0+",
        "Name": "Icons-and-Text Task Manager",
        "Name[ar]": "مدير مهامّ بأيقونات ونص",
        "Name[az]": "Tapşırıq menecerinin nişanı və mətni",
        "Name[be]": "Выгляд кіраўніка задач",
        "Name[bg]": "Мениджър на задачи (икони с текст)",
        "Name[ca@valencia]": "Gestor de tasques amb icones i text",
        "Name[ca]": "Gestor de tasques amb icones i text",
        "Name[da]": "Opgavelinje kun med ikoner og tekst",
        "Name[eo]": "Piktogram-kaj-Teksta Taskadministrilo",
        "Name[es]": "Gestor de tareas con iconos y texto",
        "Name[eu]": "Ikonoak-eta-Testua dituen ataza-kudeatzailea",
        "Name[fr]": "Gestionnaire de tâches avec icônes et du texte",
        "Name[gl]": "Xestor de tarefas de só iconas e texto",
        "Name[he]": "מנהל משימות של סמלים וטקסט בלבד",
        "Name[hu]": "Ikonos és szöveges feladatkezelő",
        "Name[ia]": "Gerente de carga de icone-e-texto",
        "Name[is]": "Verkefnastjóri með táknum og texta",
        "Name[it]": "Gestore dei processi solo icone e testo",
        "Name[ka]": "ხატულებიანი-და-ტექსტიანი ამოცანების მმართველი",
        "Name[lt]": "Piktogramų ir teksto užduočių tvarkytuvė",
        "Name[lv]": "Ikonu un teksta uzdevumu pārvaldnieks",
        "Name[nl]": "Takenbeheer met pictogrammen-en-tekst",
        "Name[nn]": "Oppgåve­handsamar med ikon og tekst",
        "Name[pa]": "ਆਈਕਾਨ-ਤੇ-ਲਿਖਤ ਟਾਸਕ ਮੈਨੇਜਰ",
        "Name[pl]": "Ikonowo-tekstowy przełącznik zadań",
        "Name[pt_BR]": "Gerenciador de tarefas com ícones e texto",
        "Name[ro]": "Gestionar de sarcini cu pictograme și text",
        "Name[ru]": "Панель задач (значки и текст)",
        "Name[sk]": "Správca úloh s ikonami a textom",
        "Name[sl]": "Upravljalnik opravil z ikonami in besedili",
        "Name[sv]": "Aktivitetshanterare med ikoner och text",
        "Name[ta]": "சின்னங்கள்-மற்றும்-உரை பணி மேலாளி",
        "Name[tr]": "Simgeli ve Etiketli Görev Yöneticisi",
        "Name[uk]": "Керування задачами з піктограмами і текстом",
        "Name[x-test]": "xxIcons-and-Text Task Managerxx",
        "Name[zh_CN]": "图标和文本任务管理器",
        "Name[zh_TW]": "僅圖示與文字的工作管理員",
        "Website": "https://userbase.kde.org/Plasma/Tasks"
    },
    "X-Plasma-API-Minimum-Version": "6.0",
    "X-Plasma-Provides": [
        "org.kde.plasma.multitasking"
    ]
}
